/home/tfuller/lang/eclipse/ics/HelloWorldJavaFxMaven/src/ca/blacktrack/address/view/PersonEditDialogController.java
/home/tfuller/lang/eclipse/ics/HelloWorldJavaFxMaven/src/ca/blacktrack/address/application/Main.java
/home/tfuller/lang/eclipse/ics/HelloWorldJavaFxMaven/src/ca/blacktrack/address/view/PersonOverviewController.java
/home/tfuller/lang/eclipse/ics/HelloWorldJavaFxMaven/src/ca/blacktrack/address/util/DateUtil.java
/home/tfuller/lang/eclipse/ics/HelloWorldJavaFxMaven/src/ca/blacktrack/address/model/Person.java
